%YAML 1.1
%TAG !u! tag:unity3d.com,2011:
--- !u!114 &11400000
MonoBehaviour:
  m_ObjectHideFlags: 0
  m_CorrespondingSourceObject: {fileID: 0}
  m_PrefabInstance: {fileID: 0}
  m_PrefabAsset: {fileID: 0}
  m_GameObject: {fileID: 0}
  m_Enabled: 1
  m_EditorHideFlags: 0
  m_Script: {fileID: 11500000, guid: ea43fdfb0c674d44e94b35672f849229, type: 3}
  m_Name: DayNightPreset 1
  m_EditorClassIdentifier: 
  AmbientColor:
    serializedVersion: 2
    key0: {r: 0.79215693, g: 0.74509805, b: 0.6509804, a: 1}
    key1: {r: 0.9960785, g: 0.9960785, b: 0.9960785, a: 1}
    key2: {r: 0.93458146, g: 0.9952057, b: 0.9978754, a: 0}
    key3: {r: 0.79215693, g: 0.74509805, b: 0.6509804, a: 0}
    key4: {r: 0.18823531, g: 0.29803923, b: 0.9333334, a: 0}
    key5: {r: 0.18823531, g: 0.29803923, b: 0.9333334, a: 0}
    key6: {r: 0, g: 0, b: 0, a: 0}
    key7: {r: 0, g: 0, b: 0, a: 0}
    ctime0: 0
    ctime1: 13107
    ctime2: 26214
    ctime3: 32768
    ctime4: 64571
    ctime5: 64571
    ctime6: 0
    ctime7: 0
    atime0: 0
    atime1: 65535
    atime2: 0
    atime3: 0
    atime4: 0
    atime5: 0
    atime6: 0
    atime7: 0
    m_Mode: 0
    m_NumColorKeys: 5
    m_NumAlphaKeys: 2
  DirectionalColor:
    serializedVersion: 2
    key0: {r: 0.38823533, g: 0.38823533, b: 0.38431376, a: 1}
    key1: {r: 1, g: 1, b: 1, a: 1}
    key2: {r: 1, g: 1, b: 0.9960785, a: 0}
    key3: {r: 0.027450982, g: 0.027450982, b: 0.027450982, a: 0}
    key4: {r: 0.027450982, g: 0.027450982, b: 0.027450982, a: 0}
    key5: {r: 0.027450982, g: 0.027450982, b: 0.027450982, a: 0}
    key6: {r: 0, g: 0, b: 0, a: 0}
    key7: {r: 0, g: 0, b: 0, a: 0}
    ctime0: 0
    ctime1: 9830
    ctime2: 29491
    ctime3: 42598
    ctime4: 56090
    ctime5: 65535
    ctime6: 0
    ctime7: 0
    atime0: 0
    atime1: 65535
    atime2: 0
    atime3: 0
    atime4: 0
    atime5: 0
    atime6: 0
    atime7: 0
    m_Mode: 0
    m_NumColorKeys: 4
    m_NumAlphaKeys: 2
  FogColor:
    serializedVersion: 2
    key0: {r: 0.6313726, g: 0.5372549, b: 0.28627452, a: 1}
    key1: {r: 0.68235296, g: 0.79215693, b: 0.94117653, a: 1}
    key2: {r: 0.8352942, g: 0.8078432, b: 0.34901962, a: 0}
    key3: {r: 0.08627451, g: 0.09411766, b: 0.10588236, a: 0}
    key4: {r: 0.08627451, g: 0.09411766, b: 0.10588236, a: 0}
    key5: {r: 0.18823531, g: 0.29803923, b: 0.9333334, a: 0}
    key6: {r: 0, g: 0, b: 0, a: 0}
    key7: {r: 0, g: 0, b: 0, a: 0}
    ctime0: 0
    ctime1: 12143
    ctime2: 31033
    ctime3: 50886
    ctime4: 65535
    ctime5: 64571
    ctime6: 0
    ctime7: 0
    atime0: 0
    atime1: 65535
    atime2: 0
    atime3: 0
    atime4: 0
    atime5: 0
    atime6: 0
    atime7: 0
    m_Mode: 0
    m_NumColorKeys: 4
    m_NumAlphaKeys: 2
