%YAML 1.1
%TAG !u! tag:unity3d.com,2011:
--- !u!1001 &3884910541038337331
PrefabInstance:
  m_ObjectHideFlags: 0
  serializedVersion: 2
  m_Modification:
    m_TransformParent: {fileID: 0}
    m_Modifications:
    - target: {fileID: 8884171412672637485, guid: cf74b626f710be84aae7f7cbc5e64c4b,
        type: 3}
      propertyPath: m_Name
      value: SuperRangedCreep Dire
      objectReference: {fileID: 0}
    - target: {fileID: 8881392740931754043, guid: cf74b626f710be84aae7f7cbc5e64c4b,
        type: 3}
      propertyPath: m_LocalPosition.x
      value: 128.73517
      objectReference: {fileID: 0}
    - target: {fileID: 8881392740931754043, guid: cf74b626f710be84aae7f7cbc5e64c4b,
        type: 3}
      propertyPath: m_LocalPosition.y
      value: 7.507782
      objectReference: {fileID: 0}
    - target: {fileID: 8881392740931754043, guid: cf74b626f710be84aae7f7cbc5e64c4b,
        type: 3}
      propertyPath: m_LocalPosition.z
      value: 65.058716
      objectReference: {fileID: 0}
    - target: {fileID: 8881392740931754043, guid: cf74b626f710be84aae7f7cbc5e64c4b,
        type: 3}
      propertyPath: m_LocalRotation.x
      value: 0
      objectReference: {fileID: 0}
    - target: {fileID: 8881392740931754043, guid: cf74b626f710be84aae7f7cbc5e64c4b,
        type: 3}
      propertyPath: m_LocalRotation.y
      value: 0
      objectReference: {fileID: 0}
    - target: {fileID: 8881392740931754043, guid: cf74b626f710be84aae7f7cbc5e64c4b,
        type: 3}
      propertyPath: m_LocalRotation.z
      value: 0
      objectReference: {fileID: 0}
    - target: {fileID: 8881392740931754043, guid: cf74b626f710be84aae7f7cbc5e64c4b,
        type: 3}
      propertyPath: m_LocalRotation.w
      value: 1
      objectReference: {fileID: 0}
    - target: {fileID: 8881392740931754043, guid: cf74b626f710be84aae7f7cbc5e64c4b,
        type: 3}
      propertyPath: m_RootOrder
      value: 0
      objectReference: {fileID: 0}
    - target: {fileID: 8881392740931754043, guid: cf74b626f710be84aae7f7cbc5e64c4b,
        type: 3}
      propertyPath: m_LocalEulerAnglesHint.x
      value: 0
      objectReference: {fileID: 0}
    - target: {fileID: 8881392740931754043, guid: cf74b626f710be84aae7f7cbc5e64c4b,
        type: 3}
      propertyPath: m_LocalEulerAnglesHint.y
      value: 0
      objectReference: {fileID: 0}
    - target: {fileID: 8881392740931754043, guid: cf74b626f710be84aae7f7cbc5e64c4b,
        type: 3}
      propertyPath: m_LocalEulerAnglesHint.z
      value: 0
      objectReference: {fileID: 0}
    - target: {fileID: 8885513289801542211, guid: cf74b626f710be84aae7f7cbc5e64c4b,
        type: 3}
      propertyPath: Traits
      value: 
      objectReference: {fileID: 11400000, guid: 4eb4a76004b098045a6cc36e300eb51d,
        type: 2}
    - target: {fileID: 8838420735623146575, guid: cf74b626f710be84aae7f7cbc5e64c4b,
        type: 3}
      propertyPath: m_Materials.Array.data[0]
      value: 
      objectReference: {fileID: 2100000, guid: 4930c6ffa5b9b9f4098249a43abf8506, type: 2}
    m_RemovedComponents: []
  m_SourcePrefab: {fileID: 100100000, guid: cf74b626f710be84aae7f7cbc5e64c4b, type: 3}
