%YAML 1.1
%TAG !u! tag:unity3d.com,2011:
--- !u!1001 &1072316858580238985
PrefabInstance:
  m_ObjectHideFlags: 0
  serializedVersion: 2
  m_Modification:
    m_TransformParent: {fileID: 0}
    m_Modifications:
    - target: {fileID: 3109888039044494351, guid: 62834dc2ebf30e34996e4238faedec88,
        type: 3}
      propertyPath: m_Name
      value: SuperMeleeCreep Dire
      objectReference: {fileID: 0}
    - target: {fileID: 3108446648306206233, guid: 62834dc2ebf30e34996e4238faedec88,
        type: 3}
      propertyPath: m_LocalPosition.x
      value: 129.04137
      objectReference: {fileID: 0}
    - target: {fileID: 3108446648306206233, guid: 62834dc2ebf30e34996e4238faedec88,
        type: 3}
      propertyPath: m_LocalPosition.y
      value: 7.507782
      objectReference: {fileID: 0}
    - target: {fileID: 3108446648306206233, guid: 62834dc2ebf30e34996e4238faedec88,
        type: 3}
      propertyPath: m_LocalPosition.z
      value: 59.079536
      objectReference: {fileID: 0}
    - target: {fileID: 3108446648306206233, guid: 62834dc2ebf30e34996e4238faedec88,
        type: 3}
      propertyPath: m_LocalRotation.x
      value: 0
      objectReference: {fileID: 0}
    - target: {fileID: 3108446648306206233, guid: 62834dc2ebf30e34996e4238faedec88,
        type: 3}
      propertyPath: m_LocalRotation.y
      value: 0
      objectReference: {fileID: 0}
    - target: {fileID: 3108446648306206233, guid: 62834dc2ebf30e34996e4238faedec88,
        type: 3}
      propertyPath: m_LocalRotation.z
      value: 0
      objectReference: {fileID: 0}
    - target: {fileID: 3108446648306206233, guid: 62834dc2ebf30e34996e4238faedec88,
        type: 3}
      propertyPath: m_LocalRotation.w
      value: 1
      objectReference: {fileID: 0}
    - target: {fileID: 3108446648306206233, guid: 62834dc2ebf30e34996e4238faedec88,
        type: 3}
      propertyPath: m_RootOrder
      value: 0
      objectReference: {fileID: 0}
    - target: {fileID: 3108446648306206233, guid: 62834dc2ebf30e34996e4238faedec88,
        type: 3}
      propertyPath: m_LocalEulerAnglesHint.x
      value: 0
      objectReference: {fileID: 0}
    - target: {fileID: 3108446648306206233, guid: 62834dc2ebf30e34996e4238faedec88,
        type: 3}
      propertyPath: m_LocalEulerAnglesHint.y
      value: 0
      objectReference: {fileID: 0}
    - target: {fileID: 3108446648306206233, guid: 62834dc2ebf30e34996e4238faedec88,
        type: 3}
      propertyPath: m_LocalEulerAnglesHint.z
      value: 0
      objectReference: {fileID: 0}
    - target: {fileID: 3111370688285504609, guid: 62834dc2ebf30e34996e4238faedec88,
        type: 3}
      propertyPath: Traits
      value: 
      objectReference: {fileID: 11400000, guid: 4a44cc0d25a56674b82c38ac3cb14ff0,
        type: 2}
    - target: {fileID: 3082143721247787857, guid: 62834dc2ebf30e34996e4238faedec88,
        type: 3}
      propertyPath: m_Materials.Array.data[0]
      value: 
      objectReference: {fileID: 2100000, guid: 5a9603aa200ca0c45bf4ce1b20e1a39a, type: 2}
    m_RemovedComponents: []
  m_SourcePrefab: {fileID: 100100000, guid: 62834dc2ebf30e34996e4238faedec88, type: 3}
